   9
sisl-version=1 cell= 4.91362818 0.00000000 0.00000000 -2.45681409 4.25911676 0.00000000 0.00000000 0.00000000 40.51491471  nsc= 1 1 1
C   1.23510718  0.70570624  19.95820983
C   -0.00368767  1.42176061  19.99556600
C   -0.00012364  2.83988494  20.00048050
C   -1.22845170  3.54938723  20.00071432
C   3.68544994  0.70972940  20.00070049
C   2.45880119  1.42074927  19.99936970
C   2.45717426  2.83992455  20.00043004
C   1.22844655  3.54972643  20.00054766
H   1.02356099  0.82461952  21.05043948

